{
  "checklist": [
    {
      "title": "oriane",
      "description": "oui c'est moi",
      "id": 1
      
    },
    {
      "title": "njkxfg",
      "description": "fghb",
      "id": 2
    }
  ]
}